[
  {
	"version": "0.0.5",
	"localhost": "hiker://files/bgHouse/src/",
	"url": "https://gitea.com/bgcode/hikerrule/raw/branch/main/code/src/",
	"namelist": [
	  "系统",
	  "更多",
	  "其他",
	  "图片",
	  "头像"
	],
	"numberlist": [
	  22,
	  10,
	  4,
	  3,
	  2
	],
	"pathlist": [
	  "system/",
	  "more/",
	  "messy/",
	  "tu/",
	  "avatar/"
	],
	"typelist": [
	  ".svg",
	  ".png",
	  ".svg",
	  ".jpg",
	  ".jpeg"
	]
  }
]